<svg xmlns="http://www.w3.org/2000/svg" width="14.813" height="19.446" viewBox="0 0 14.813 19.446">
  <g id="placeholder" transform="translate(-61.046 -0.122)">
    <path id="Path_320" data-name="Path 320" d="M68.452.122a7.421,7.421,0,0,0-7.406,7.406,7.339,7.339,0,0,0,1.481,4.444L68,19.341a.654.654,0,0,0,.456.228.676.676,0,0,0,.456-.228c.023-.034,5.526-7.448,5.572-7.517.011,0,.011,0,.011-.011A7.4,7.4,0,0,0,68.452.122Zm0,11.394A3.988,3.988,0,1,1,72.44,7.528,3.992,3.992,0,0,1,68.452,11.516Z" fill="#0872bb"/>
  </g>
</svg>
