<svg xmlns="http://www.w3.org/2000/svg" width="11.8" height="19" viewBox="0 0 11.8 19">
  <g id="smartphone_2_" data-name="smartphone (2)" transform="translate(0.5 0.5)">
    <g id="Group_58" data-name="Group 58" transform="translate(5.1 2.5)">
      <g id="Group_57" data-name="Group 57">
        <path id="Path_230" data-name="Path 230" d="M241.183,42.667h-1.8a.45.45,0,1,0,0,.9h1.8a.45.45,0,1,0,0-.9Z" transform="translate(-238.933 -42.667)" fill="#4b4b4b" stroke="#4b4b4b" stroke-width="1"/>
      </g>
    </g>
    <g id="Group_60" data-name="Group 60" transform="translate(0)">
      <g id="Group_59" data-name="Group 59">
        <path id="Path_231" data-name="Path 231" d="M111.4,0h-7.2a1.8,1.8,0,0,0-1.8,1.8V16.2a1.8,1.8,0,0,0,1.8,1.8h7.2a1.8,1.8,0,0,0,1.8-1.8V1.8A1.8,1.8,0,0,0,111.4,0Zm.9,16.2a.9.9,0,0,1-.9.9h-7.2a.9.9,0,0,1-.9-.9V1.8a.9.9,0,0,1,.9-.9h7.2a.9.9,0,0,1,.9.9Z" transform="translate(-102.4)" fill="#4b4b4b" stroke="#4b4b4b" stroke-width="1"/>
      </g>
    </g>
    <g id="Group_62" data-name="Group 62" transform="translate(4.5 13.7)">
      <g id="Group_61" data-name="Group 61">
        <ellipse id="Ellipse_58" data-name="Ellipse 58" cx="0.9" cy="0.9" rx="0.9" ry="0.9" fill="#4b4b4b" stroke="#4b4b4b" stroke-width="1"/>
      </g>
    </g>
    <g id="Group_64" data-name="Group 64" transform="translate(3 2.5)">
      <g id="Group_63" data-name="Group 63">
        <ellipse id="Ellipse_59" data-name="Ellipse 59" cx="0.45" cy="0.45" rx="0.45" ry="0.45" fill="#4b4b4b" stroke="#4b4b4b" stroke-width="1"/>
      </g>
    </g>
  </g>
</svg>
