<svg xmlns="http://www.w3.org/2000/svg" width="20.484" height="19.565" viewBox="0 0 20.484 19.565">
  <g id="top-games-star" transform="translate(0.001 -12.712)">
    <g id="Group_48" data-name="Group 48" transform="translate(-0.001 12.712)">
      <path id="Path_224" data-name="Path 224" d="M19.893,19.726l-.521-.111a2.025,2.025,0,0,0-.218-.249c-.04-.038-.083-.072-.126-.107a2.72,2.72,0,0,0-1.748-.52H15.263l-1.17-.249-3.237-5.356a.749.749,0,0,0-.615-.422.749.749,0,0,0-.615.422L6.388,18.49l-1.17.249H1.212a.563.563,0,0,0-.553.553v.419l-.072.015c-.642.137-.781.619-.309,1.076L2.53,22.985v2.242a.553.553,0,0,0,.553.553H4.518l-.8,5.731c-.067.48.136.766.485.766a.968.968,0,0,0,.419-.111l5.617-2.75,5.617,2.75a.969.969,0,0,0,.419.111c.349,0,.552-.286.485-.766l-.8-5.731h.112a.559.559,0,0,0,.553-.553v-.958l.722-.7a4.049,4.049,0,0,0,.449-.05,3.075,3.075,0,0,0,.542-.14,2.213,2.213,0,0,0,.766-.456,2.154,2.154,0,0,0,.545-.815,2.519,2.519,0,0,0,.133-.514,3.118,3.118,0,0,0,.035-.419L20.2,20.8C20.674,20.345,20.536,19.863,19.893,19.726ZM19.17,21.8a1.625,1.625,0,0,1-.441.715,1.72,1.72,0,0,1-.689.381,3.312,3.312,0,0,1-.961.125h-1v2.2H14.232V19.292h3.049a2.086,2.086,0,0,1,1.492.474,1.776,1.776,0,0,1,.5,1.348A2.3,2.3,0,0,1,19.17,21.8ZM3.083,24.291V20.757H1.212V19.292H6.787v1.466H4.917v4.47H3.083Zm7.158,1.037a3.8,3.8,0,0,1-1.662-.32A2.5,2.5,0,0,1,7.512,24,3.361,3.361,0,0,1,7.1,22.264,3.059,3.059,0,0,1,7.913,20a3.048,3.048,0,0,1,2.255-.81,3.1,3.1,0,0,1,2.283.8,3,3,0,0,1,.8,2.229,3.654,3.654,0,0,1-.35,1.706,2.5,2.5,0,0,1-1.012,1.036A3.34,3.34,0,0,1,10.241,25.328Z" transform="translate(0.001 -12.712)" fill="#0872bb"/>
      <path id="Path_225" data-name="Path 225" d="M248.573,230.422a1.114,1.114,0,0,0-.891.393,2.672,2.672,0,0,0,0,2.591,1.264,1.264,0,0,0,1.824.008,2.2,2.2,0,0,0,.324-1.381,1.834,1.834,0,0,0-.338-1.225A1.156,1.156,0,0,0,248.573,230.422Z" transform="translate(-238.408 -222.555)" fill="#0872bb"/>
      <path id="Path_226" data-name="Path 226" d="M445.384,228.183h-.522v1.324h.449a1.156,1.156,0,0,0,.745-.184.593.593,0,0,0,.215-.472.659.659,0,0,0-.186-.474A.966.966,0,0,0,445.384,228.183Z" transform="translate(-428.786 -220.397)" fill="#0872bb"/>
    </g>
  </g>
</svg>
